30-50
50-70
70-90
90-110
110-130
130-160
160-180
180-200
200-230
230-260
260-290
290-320
320-350
350-380
380-410
410-440
440-470
470-500
500-530
530-560
560-590
590-620
620-650
650-680
680-710
710-740
740-770
770-800
800-830
830-860
860-890
890-920
920-950
950-980
980-1010
1010-1040
1040-1070
1070-1100
1100-1130
1130-1160
1160-1190
1190-1220
1220-1250
1250-1280
1280-1310
1310-1340
1340-1370
1370-1400
1400-1430
1430-1460
1460-1490
1490-1520
1520-1550
1550-1580
1580-1610
1610-1640
1640-1670
1670-1700
1700-1730
1730-1760
1760-1790
1790-1820
1820-1850
1850-1880
1880-1910
1910-1940
1940-1970
1970-2000
2000-2030
2030-2060
2060-2090
2090-2120
2120-2150
2150-2180
2180-2210
2210-2240
2240-2270
2270-2300
2300-2330
2330-2360
2360-2390
2390-2420
2420-2450
2450-2480
2480-2510
2510-2540
2540-2570
2570-2600
2600-2630
2630-2660
2660-2690
2690-2720
2720-2750
2750-2780
2780-2810
2810-2840
2840-2870
2870-2900
2900-2930
2930-2960
2960-2980
2980-3000
3000-3030
3030-3060
3060-3090
3090-3120
3120	-	3150
3150	-	3180
3180	-	3210
3210	-	3240
3240	-	3270
3270	-	3300
3300	-	3330
3330	-	3360
3360	-	3390
3390	-	3420
3420	-	3450
3450	-	3480
3480	-	3510
3510	-	3540
3540	-	3570
3570	-	3600
3600	-	3630
3630	-	3660
3660	-	3690
3690	-	3720
3720	-	3750
3750	-	3780
3780	-	3810
3810	-	3840
3840	-	3870
3870	-	3900
3900	-	3930
3930	-	3960
3960	-	3990
3990	-	4020
4020	-	4050
4050	-	4080
4080	-	4110
4110	-	4140
4140	-	4170
4170	-	4200
4200	-	4230
4230	-	4260
4260	-	4290
4290	-	4320
4320	-	4350
4350	-	4380
4380	-	4410
4410	-	4440
4440	-	4470
4470	-	4500
4500	-	4530
4530	-	4560
4560	-	4590
4590	-	4620
4620	-	4650
4650	-	4680
4680	-	4710
4710	-	4740
4740	-	4770
4770	-	4800
4800	-	4830
4830	-	4860
4860	-	4890
4890	-	4920
4920	-	4950
4950	-	4980
4980	-	5010
5010	-	5040
5040	-	5070
5070	-	5100
5100	-	5130
5130	-	5160
5160	-	5190
5190	-	5220
5220	-	5250
5250	-	5280
5280	-	5310
5310	-	5340
5340	-	5370
5370	-	5400
5400	-	5430
5430	-	5460
5460	-	5490
5490	-	5520
5520	-	5550
5550	-	5580
5580	-	5610
5610	-	5640
5640	-	5670
5670	-	5700
5700	-	5730
5730	-	5760
5760	-	5790
5790	-	5820
5820	-	5850
5850	-	5880
5880	-	5910
5910	-	5940
5940	-	5970
5970	-	6000